^E:\GAMEDEV\КУРСЫ\HOMEWORK_16\HOMEWORK_16\HOMEWORK_16.CPP
E:\GAMEDEV\Курсы\HOMEWORK_16\HOMEWORK_16\DEBUG\VC142.PDB
E:\GAMEDEV\Курсы\HOMEWORK_16\HOMEWORK_16\DEBUG\VC142.IDB
E:\GAMEDEV\Курсы\HOMEWORK_16\HOMEWORK_16\DEBUG\HOMEWORK_16.OBJ
